…
Observations are the level of items in orders by user. There are user /
order variables – user ID, order ID, order day, and order hour. There
are also item variables – name, aisle, department, and some numeric
codes.

#### How many aisles are there, and which aisles are the most items ordered from?

``` r
instacart %>% 
  count(aisle) %>% 
  arrange(desc(n))
```

    ## # A tibble: 134 x 2
    ##    aisle                              n
    ##    <chr>                          <int>
    ##  1 fresh vegetables              150609
    ##  2 fresh fruits                  150473
    ##  3 packaged vegetables fruits     78493
    ##  4 yogurt                         55240
    ##  5 packaged cheese                41699
    ##  6 water seltzer sparkling water  36617
    ##  7 milk                           32644
    ##  8 chips pretzels                 31269
    ##  9 soy lactosefree                26240
    ## 10 bread                          23635
    ## # ... with 124 more rows
…
weather_df %>% 
  count(snow) %>%
  mutate(rank = min_rank(n))
```

    ## # A tibble: 282 x 3
    ##     snow       n  rank
    ##    <int>   <int> <int>
    ##  1   -13       1     1
    ##  2     0 2008508   282
    ##  3     3    8790   273
    ##  4     5    9748   275
    ##  5     8    9962   276
    ##  6    10    5106   271
    ##  7    13   23095   279
    ##  8    15    3672   267
    ##  9    18    3226   266
    ## 10    20    4797   270
    ## # ... with 272 more rows
…
